सॅटलाइट किंवा ड्रोन मधुन काढलेला फोटो हा एक प्रकारचा नकाशाच असतो, फक्त तो ओबड धोबड (Raw) नकाशा असतो आणि त्यावर नावे (लेबल)लिहिलेली नसतात. अशा फोटोवर ट्रेस पेपर ठेवुन नीट रस्ते, इमारती रेखाटल्या, त्यांना नावे दिली की चांगल्या दर्जाचा नकाशा तयार होतो ! या शतकाच्या सुरवातीला सॅटलाइट आणि ड़्रोनमुळे मुळे असे नकाशे तयार करणे सोपे झाले, आणि नंतरच्या काही वर्षात संगणकामुळे व आंतरजालामुळे हे काम सामान्य लोकांना सहज करता येऊ लागले. ओपन स्ट्रीट मॅपने जगाच्या नकाशाची अब्जावधी छोट्या तुकड्यात विभागणी केली व हे काम सर्वांना वाटुन दिले  ! ओपन स्ट्रीट मॅप समजावुन सांगताना काही तज्ञ जिगसॉ पझलचे उदाहारण देतात. एक एक तुकडा जोडत अनेक जण मिळुन जिगसॉ पझल पुर्ण केले जाते.

थोडक्यात ओपन स्ट्रीट मॅपमधे तुम्हाला ट्रेसिंग करणे शिकायचे आहे. प्रत्येकाने थोडेसे  ट्रेसिंग करुन त्यात थोडी माहिती भरायची आहे, लेबलींग करायचे आहे. ओपन स्ट्रीट मॅपधील iD Editor हा तुमचा ट्रेस पेपर आहे. तेव्हा आजचा लेख वाचताना सुरवातीलाच  ह्या तीन गोष्टी क्रमाने करा. १) ब्राउझर  (फायरफॉक्स, क्रोम इ) सुरु करा. एका वेगळ्या विंडोमधे ओपन स्ट्रीट मॅप साइटवर जा (https://www.openstreetmap.org) २) लॉगिन करा  ३) iD Editor सुरू करा. यापुढे या तीन पायऱ्या कायम लक्षात ठेवा. ओपन स्ट्रीट मॅपमधे माहिती भरताना या तीन पायऱ्या सुरवातीला न चुकता कराव्या लागतील.

आपल्याला मुख्यत्वे वृक्षांचेच जिपिएस टॅगिंग करायचे आहे. पण इमारती,रस्ते , दुकाने, नद्या, नाले इत्यादी सर्वच घटकांचे जिपिएस टॅगिंग नकाशावर असते.  वृक्षांचे जिपिएस टॅगिंग करता करता जर वृक्षांजवळील इतर घटकांचेही जिपिएस टॅगिंग केले तर ओपन स्ट्रीट मॅपला मदतच होईल. त्यामुळे आपले ज्ञान आणि काैशल्य अधिक परिपुर्ण होईल. शिवाय वृक्षांचे जिपिएस टॅगिंग सुध्दा सुयोग्य पध्दतीने होईल.

ओपन स्ट्रीट मॅपमधील सॅटलाइट किंवा ड्रोन मधुन काढलेल्या फोटोंना Imagery-इमेजरी  (प्रतिमासंच) म्हणतात. उजव्या बाजुच्या टुलबारमधे लेयर्स हा पर्याय आहे. तो पर्याय निवडुन वेगवेगळ्या इमेजरी एकापाठोपाठ तपासा. काही स्पष्ट तर काही अस्पष्ट असतील. त्यात सर्वात स्पष्ट इमेजरी निवडा. आता मॅप मधे तुमचा परिसर शोधा. ओपन स्ट्रीट मॅपवर आपले स्वत:चे  रहाण्याचे ठिकाण उदा घर,चाळ, बंगला, सोसायटी, अपार्टमेंट आहे का ते पहा. दुसऱ्या काही तुमच्या ओळखीच्या इमारती सुध्दा पाहु शकता जसे की शाळा, दुकान, हॉस्पिटल. जर तुम्हाला दुसरा देश दिसत असेल तर माऊसने ड्रॅग करुन आपल्या भारत देशावर या. देश, राज्य, जिल्हा, शहर, गाव, ठिकाण या क्रमाने हळु हळु झुम-इन करा. तुमच्या आसपासचा ओळखीचा परिसर दिसु लागेल. तुमचे घर किंवा इमारत तुम्हाला सहज ओळखता येईल. आता एखादया इमारतीचे क्षेत्र (Area) तुम्हाला रेषा आखुन निश्चित करायचे आहे आणि त्याला
[आडवा टुलबार]
आडवा टुलबार


नाव द्यायचे आहे. स्क्रिनच्या वरील   भागात Point, Line, Area असे     लिहिलेला आडवा टुलबार असेल. त्यातील Area टुल निवडा आणि इमारतीच्या प्रत्येक कोपऱ्यावर क्रमाने क्लिक करत जा. तुमची प्रत्येक क्लिक मागच्या क्लिकला आपोआप जोडली जाईल. शेवटी सुरवातीच्या बिंदुवर पुन्हा क्लिक करा म्हणजे तुमची इमारतीची आकृती पुर्ण होईल. आकृती पुर्ण होताच डाव्या बाजुवर एक फॉर्म येईल त्यामधे Building टॅग सर्च करून निवडा. मग इमारतीचे नाव इंग्रजीत टाका. उदा. Tarang. त्यापुढे सोसायटी, चाळ, बंगला असे विषेशण लिहिण्याची गरज नाही. इमारतीचे नाव टाकल्यावर टाकल्यावर वरच्या कोपऱ्यात टिक करा म्हणजे त्या इमारतीची माहिती पुर्ण झाली. मग पुढील इमारत याचप्रमाणे पुर्ण करा. अशा चार पाच इमारतींची माहिती भरुन झाल्यावर वर उजव्या कोपऱ्यातील Save बटन क्लिक करा. शेवटी Comment, म्हणजे तुम्ही भरलेल्या माहिती विषयी अगदी थोडक्यात लिहा. उदा. Buildings near Kolhapur Station आणि Submit करा. 



थोडक्यात पण महत्वाचे :

    इमारतीची नुसती नुसती चैाकट सेव्ह करता येणार नाही पण नाव आठवत नसेल तर कमीत कमी Building = yes हा एक टॅग इमारतीसाठी भरता येईल व सेव्ह करता येईल. नाव तुम्ही नंतर टाकले तरी चालेल. किंवा नंतर दुसरा स्वयंसेवक ते टाकु शकेल.
    मराठीत नावे लिहिता येतात पण त्यासाठी name:mr या वेगळ्या कॉलमची सोय आहे. त्याबद्दल पुढील भागांमधे सविस्तर चर्चा करु. 
    तुमचे घर अगोदरच ओपन स्ट्रीट मॅपवर असेल तर त्याला नुसते नाव द्या. नावही असेल तर दुसरी इमारत शोधा व सराव करा.
    बिंदू किंवा रेषा काढताना काही काही चुक झाल्यास लगेच Undo करुन पुन्हा प्रयत्न करा. थोड्या इमारतींची माहिती भरल्यावर काही चुक झाल्याचे लक्षात आल्यास सेव्ह करुन नका . विज पुरवठा बंद झाल्यास अथवा संगणक अचानक बंद पडल्यास ओपन स्ट्रीट मॅप तुमचे अर्धवट राहिलेले काम बहुतेक वेळा जपुन ठेवतो. पुन्हा लॉगिन केल्यावर तुम्ही अपलोड करु शकता किंवा Discard करू शकता.


एरिया टुलचा चांगला सराव झाला की पुढील भाग तुम्हाला अगदी सोपा वाटेल. आडव्या टुलबारवरील उर्वरीत  दोन टुल्स तुम्ही सहज वापरू शकाल. मधले टुल  रेषा (Line). हे रस्त्यांसाठी किंवा नदी, नाले, ओढा यासाठी. या टुल वर क्लिक केल्यावर जिथे रस्ता असेल त्यावर क्रमाने क्लिक करत ओळ आखायची. रस्ता संपला की दोनदा क्लिक करा. 

टुलबारवरील पाहिले टुल आकर्षण-बिंदू किंवा POI - Point of Interest. हे ओपन स्ट्रीट मॅपमधे आकर्षण-बिंदू किंवा POI म्हणजे सर्वसाधारण लोकांच्या आकर्षणाचा केन्द्रबिंदू, ज्या लोकप्रिय ठिकाणाचा मॅपवर जास्त शोध घेण्याची शक्यता असते असे ठिकाण. एखादे स्मारक, हॉटेल, हॉस्पिटल, अैाषधाचे दुकान, पेट्रोल पंप, ATM, टुरिस्ट स्पॉट किंवा दिपस्तंभ. एखादा चहाचा स्टॉलसुध्दा POI आहे. व्यापारी संकुल असलेल्या इमारतींवर तुम्ही अनेक POI टाकु शकता. बाहेरुन आलेल्या, परिसराची माहिती नसलेल्या प्रवाश्याला असे POI खुपच महत्वाचे ठरु शकतात. जेव्हा तुम्ही ओपन स्ट्रीट मॅपमधे इतर माहिती भराल तेव्हा असे POI शक्य असेल तेव्हा जरुर टाका. POI मुळे ओपन स्ट्रीट मॅप अधिक समृध्द होईल. POI आपल्यासाठी सगळ्यात महत्वाचे आहेत.



एकदा माहिती भरली व सबमिट केली की काही मिनिटातच जागतिक स्तरावर सर्वांना उपलब्ध होईल. कधी कधी सर्व्हर व्यस्त असेल तर थोडा जास्त वेळ लागू शकेल. माहिती अपलोड झाल्यावर कोणत्याही व्यक्तीला, मग ती व्यक्ती दुर, अगदी जगाच्या पाठीवर कुठेही रहात असली तरी तीला तुमच्या इमारतीचे नाव,ठिकाण इत्यादी तुम्ही भरलेली माहिती ओपन स्ट्रीट मॅपमधे शोधता येईल.

पुढे जसे आपण वृक्षांचे जिपिएस टॅगिंग अधिकाधिक करत जाऊ तसे पर्यावरण कार्यकर्त्यांना दुर्मिळ वृक्षसुध्दा सहज शोधता येऊ शकतील. तसेच त्यांची मोजणी, वर्गीकरण आणि आयडेंटिफिकेशन करता येईल. त्यामुळे जिपिएस टॅगिंगची वृुक्ष संवर्धनाला मोलाची मदत होईल.










