माझी बाळबोध रोपवाटिका 

वृक्षारोपण आणि झाडांची ओळख हा अनेकांचा आवडीचा वि़षय असतो. मलाही हा छंद होता पण काही ना काही कारणानी या छंदाचा पाठपुरावा करता आला नाही. कोविडमुळे भरपुर वेळ आणि संधी मिळाली. झाडांची चांगली ओळख असलेले कोणी जवळपास नाही. लॉकडाउनमधुन जेव्हा कधी सुट मिळाली तेव्हा एकटाच परिसरात फिरून झाडांची ओळख करुन घेतली. सुरूवातीला चार-पाच नेहमीची झाडे सोडली तर दुसरी झाडे मला माहीत नव्हती. मग अनोळखी झाडाचा फोटो घ्यायचा व त्या फोटोचा इंटरनेटवर शोध घ्यायचा, तुलना करायची आणि किती प्रमाणात जुळतो ते बघायचं. अशा तऱ्हेने फोटो पुरेसे जुळले की मग ओळख पटली असे समजायचे मग त्याची नोंद वहीमध्ये करायची. फेसबुकला मी कंटाळलो होतो, निरर्थक पोस्ट वाचून वाचून फेसबुक सोडून द्यायचा विचार केला होता. पण अगदी शेवटच्या क्षणी योगायोगाने झाडांची ओळख शोधता-शोधता हा ग्रुप मिळाला आणि फेसबुकचा खरा उपयोग काय ते कळले. आता या ग्रुप वरच्या पोस्ट सोडून मी बाकी पोस्ट कडे फार लक्ष देत नाही. या ग्रुपवर काही झाडांची ओळख तज्ञांकडुन करून घेतली अजुनही काही वृक्षांची ओळख बाकी आहे, पण त्यांना फळे, फुले येण्याची वाट बघतो आहे म्हणजे ओळख पटणे सोपे जाईल.  

या ग्रुपच्या प्रस्तावनेत एक आवाहन केले आहे ते म्हणजे जास्तीत जास्त सभासदांनी रोपवाटिका तयार केली पाहिजे आणि वृक्षरोपणाला चालना दिली पाहिजे. ही अगदी योग्य अशीच भुमिका आहे. मला ही भुमिका पुर्णपणे पटली आहे. योगायोग असा की हा ग्रुप जोडण्याच्या सुमारास मी रोपवाटीका तयार करण्याची खटपट करतच होतो. ग्रुप जोडल्यावर उत्साह वाढला.

नुसत्या मातीत रोपे लावण्यापेक्षा घरच्या घरी ओल्या कचऱ्याचे कंपोस्ट करुन त्यात माती मिसळावी मग त्यात रोपे लावावी असे ठरवले. ह्यात दुहेरी फायदा आहे. एक तर मातीत भर पडल्यामुळे जास्त रोपे लावता येतील आणि कचऱ्याचे नियोजन होऊन पर्यावरण संवर्धनाला थोडा हातभार लागेल.

सुमारे एक महिना आधी ओला कचरा वेगळा काढायला सुरवात केली. इंटरनेटवर होम कंपोस्टचे ब्लॉग,व्हिडिओ बघितले व त्यानुसार ओला कचरा कंपोस्ट करायला सुरुवात केली. त्याचबरोबर दरोरोज बाहेर फेरफटका मारताना कंपोस्टसाठी सुखा पालापाचोळा गोळा करु लागलो. त्याचबरोबर बियाही गोळा करायला सुरवात केली. घरी आंबे, चिकु इत्यादी फळांच्या बिया आयत्याच मिळतात त्या धुऊन वाळवुन वेगळ्या डब्यात जपुन ठेवायला लागलो. कंपोस्ट करण्याचा हा माझा पहिलाच प्रयत्न होता. साधारण दोन महिन्यात खत तयार झाले. अनुभव नसल्यामुळे खताचा दर्जा फार चांगला नव्हता, पण कामचलाऊ नक्कीच होता.  नर्सरीत माती  विकत मिळते ती चांगल्या दर्जाची नसते असा माझा समज आहे त्यामुळे माझा सगळा भर कंपोस्ट वरच होता. थोडी नर्सरीतली विकतची माती आणि बरचसे घरी बनवलेले कंपोस्ट असे मिश्रण बनवले. रिकाम्या दुधाच्या पिशव्या घरी असतातच. त्यामधे हे मिश्रण भरले. खाली छोटे भोक पाडून त्यावर करंज्याच्या बियांची टरफले उपडी टाकली कारण माझ्याकडे खापर नव्हते. अशा तऱ्हेने घरातल्या घरात उपलब्ध साधनांचा वापर करून रोपवाटिका सुरू झाली. एक दीड महिन्यातच रोपे रुजायला लागली. काही नीट जगली नाहीत . पण सुमारे नव्वद टक्के जगली. पाऊस सुरु झाल्यावर त्यांना तजेलाही चांगला आला. आंब्याचा सीझन असल्याने आंब्याच्या बिया (बाठे) जास्त होत्या. त्यांना साठवायला जागा जास्त लागते म्हणुन त्या सर्वात आधी लावल्या. त्या जवळपास सर्व रुजल्या. दोन करंज, दोन चिंचेच्या बिया पण छान वाढल्या. पण शेवटी ग्रिलमधे जागा नसल्यामुळे करंज, जांभूळ, चिकू इत्यादी भरपुर बिया राहूनच गेल्या. त्याचे काय करायचे हा प्रश्नच आहे. वीस - बावीस रोपे आहेत. साधारण एक फुट झाली आहेत. ती लावण्यासाठी जागेचा शोध घेत आहे. ठाणे येथील कोणी पर्यावरणप्रेमी अथवा संस्थेने कुठे रोपण करावे याबद्दल मार्गदर्शन केल्यास मी आभारी राहीन. मी रहात असलेल्या ठाणे पुर्व - मुलुंड परिसरात वृक्षसंपदा चांगली आहे. पुढील पावसाळ्यात खुप बिया जमवता येतील व रोपे सुध्दा तयार करता येतील असे वाटते. शिवाय या ग्रुपमधील तज्ञांच्या मार्गदर्शनाखाली रोपे तयार करण्याच्या पद्धतीत सुधारणा करता येईल.   


भविष्यात शहराबाहेर एखादी मोठी जागा खास रोपवाटीकेसाठी घेऊन जास्तीत जास्त रोपे तयार करुन ती वाटावी व आपण स्वत:ही भरपुर वृक्षारोपण करावे अशी इच्छा आहे. प्रत्येक बी रुजली पाहिजे प्रत्येक रोप वाढले पाहिजे असे मनात नेहमी वाटत रहाते. छोटी सुरवात, मोठी स्वप्ने ! 




