<?xml version="1.0" encoding="UTF-8" standalone="no"?>
<!-- Created with Inkscape (http://www.inkscape.org/) -->

<svg
   xmlns:dc="http://purl.org/dc/elements/1.1/"
   xmlns:cc="http://creativecommons.org/ns#"
   xmlns:rdf="http://www.w3.org/1999/02/22-rdf-syntax-ns#"
   xmlns:svg="http://www.w3.org/2000/svg"
   xmlns="http://www.w3.org/2000/svg"
   xmlns:sodipodi="http://sodipodi.sourceforge.net/DTD/sodipodi-0.dtd"
   xmlns:inkscape="http://www.inkscape.org/namespaces/inkscape"
   width="210mm"
   height="297mm"
   viewBox="0 0 210 297"
   version="1.1"
   id="svg4593"
   inkscape:version="0.92.3 (2405546, 2018-03-11)"
   sodipodi:docname="Hand Gloves - 02.svg">
  <defs
     id="defs4587" />
  <sodipodi:namedview
     id="base"
     pagecolor="#ffffff"
     bordercolor="#666666"
     borderopacity="1.0"
     inkscape:pageopacity="0.0"
     inkscape:pageshadow="2"
     inkscape:zoom="0.63"
     inkscape:cx="602.18867"
     inkscape:cy="560"
     inkscape:document-units="mm"
     inkscape:current-layer="layer1"
     showgrid="false"
     inkscape:window-width="1806"
     inkscape:window-height="976"
     inkscape:window-x="114"
     inkscape:window-y="48"
     inkscape:window-maximized="1" />
  <metadata
     id="metadata4590">
    <rdf:RDF>
      <cc:Work
         rdf:about="">
        <dc:format>image/svg+xml</dc:format>
        <dc:type
           rdf:resource="http://purl.org/dc/dcmitype/StillImage" />
        <dc:title></dc:title>
      </cc:Work>
    </rdf:RDF>
  </metadata>
  <g
     inkscape:label="Layer 1"
     inkscape:groupmode="layer"
     id="layer1">
    <path
       style="fill:none;stroke:#000000;stroke-width:0.57113272;stroke-linecap:butt;stroke-linejoin:miter;stroke-miterlimit:4;stroke-dasharray:none;stroke-opacity:1"
       d="m 197.89823,194.75304 -28.67393,0.44048 -34.12434,-2.8631 -9.71597,0.22023 -17.77309,6.82738 -14.929407,7.92858 -20.853765,12.33332 -13.744536,0.22024 -4.502515,-6.3869 1.658819,-7.70833 11.137813,-9.25 18.247049,-14.31547 14.9294,-10.13095 0.236972,-3.08333 -2.606722,-0.66072 -17.299146,9.25 c 0,0 -21.80167,15.41665 -23.697461,16.73809 -1.8958,1.32143 -17.536125,10.79167 -17.536125,10.79167 l -5.924364,-4.18453 -0.710923,-5.50595 0.947894,-5.06548 22.986538,-11.89285 33.176453,-20.04166 1.184876,-3.74405 h -4.739496 l -15.403355,8.36905 c 0,0 -23.223509,14.31548 -24.408385,14.53571 -1.184876,0.22023 -26.067213,5.94643 -26.067213,5.94643 l -9.9529349,-4.625 -1.8957911,-8.80953 4.028563,-7.92856 13.507554,-3.96428 32.7025,-4.84524 22.275623,-4.84524 4.265543,-3.74405 -3.317648,-1.98214 -16.825202,1.7619 H 39.125227 l -20.379822,-6.3869 -7.820163,-6.82738 -0.9478953,-7.48809 5.6873913,-9.02975 22.275612,0.88094 23.934442,6.38691 31.280653,7.26785 4.028563,-3.74405 -0.947896,-5.06546 -14.218478,-8.80953 -14.45545,-15.416656 c 0,0 -4.739496,-7.488094 -5.687392,-8.589283 -0.947903,-1.101192 1.895792,-9.029759 1.895792,-9.029759 l 9.478992,-1.541666 13.507553,5.065473 18.247041,13.874996 19.6689,11.232135 14.69243,-1.32143 35.07225,-3.08333 27.963,-5.505948"
       id="path5205"
       inkscape:connector-curvature="0" />
  </g>
</svg>
